{
  "editor.tokenColorCustomizations": {
    "[Black Ocean]": {
      "comments": "#60778ca0",
      "textMateRules": [{
          "scope": [
            "storage.modifier", // private, public
            "meta.property-name support.type.property-name", // css properties
          ],
          "settings": {
            "fontStyle": ""
          }
        },
        {
          "scope": [
            "variable",
            "variable.language",
            "variable.name",
            "variable.other",
            "variable.other.readwrite",
            "variable.parameter",
          ],
          "settings": {
            "foreground": "#888888"
          }
        },{
          "scope": [
            "markup.inline.raw.string.markdown"
          ],
          "settings": {
            "foreground": "#888888"
          }
        }
      ]
    }
  },
  "workbench.colorCustomizations": {
    "editorRuler.foreground": "#66666650",
    "terminal.background": "#040404",
    "activityBar.activeBackground": "#333333",
    "[Black Ocean]": {
      "list.inactiveSelectionBackground": "#019d7630"
    }
  }
}
