{
    "React Simple FC": {
        "prefix": "rfcs",
        "body": [
            "import React from 'react';",
            "",
            "import Box from '@mui/material/Box';",
            "",
            "export const ${1:ComponentName} = (): JSX.Element => {",
            "  return (",
            "    <>",
            "      <Box></Box>",
            "    </>",
            "  );",
            "};",
            ""
        ]
    },
    "React FC with Props": {
        "prefix": "rfcp",
        "body": [
            "import React from 'react';",
            "",
            "import Box from '@mui/material/Box';",
            "",
            "interface Props {",
            "  property: type;",
            "}",
            "",
            "export const ${1:ComponentName}: React.FC<Props> = ({ property }): JSX.Element => {",
            "  return (",
            "    <>",
            "      <Box>{property}</Box>",
            "    </>",
            "  );",
            "};",
            ""
        ]
    },
    "React Use Query Simple": {
        "prefix": "uqs",
        "body": [
            "const {",
            "  data: ${1:EntityName} = null,",
            "  isFetching: fetching${1:/pascalcase},",
            "  isError: ${1:/camelcase}FetchIsError,",
            "} = useFetch${1:/pascalcase}Query();",
            ""
        ]
    }
}
